<svg width="19" height="19" viewBox="0 0 19 19" fill="none" xmlns="http://www.w3.org/2000/svg">
<path d="M17.6435 14.8281C17.7511 14.7264 17.8306 14.5903 17.8089 14.45C17.8083 14.3097 17.7484 14.1775 17.6436 14.0806C17.5397 13.98 17.4005 13.9247 17.2509 13.9247C17.1012 13.9247 16.9608 13.9805 16.8559 14.0809L14.8068 16.0147V10.0248C14.8068 9.73538 14.5565 9.5 14.2487 9.5C13.9396 9.5 13.6883 9.73538 13.6883 10.0248V16.0147L11.6394 14.0814C11.5343 13.9805 11.3936 13.9247 11.2434 13.9247C11.0946 13.9247 10.9544 13.9811 10.8508 14.0809C10.7462 14.1791 10.6882 14.3102 10.6875 14.4497V14.4531C10.6875 14.5942 10.7454 14.7272 10.8511 14.8277L13.8533 17.662C14.0718 17.8572 14.4052 17.8633 14.6287 17.6758" fill="#F36F20"/>
<path d="M10.439 3.62847V1.55315L12.6278 3.62847H10.439ZM10.2711 0H0V17.8125H8.94767V16.8229H0.994186V0.824653H9.61047V4.61806H13.2558V7.25694H14.25V3.89022L10.2711 0Z" fill="#F36F20"/>
<path d="M10.2697 10.3617H2.79277C2.56202 10.3617 2.375 10.1697 2.375 9.9328V9.92893C2.375 9.69202 2.56202 9.5 2.79277 9.5H10.2697C10.5005 9.5 10.6875 9.69202 10.6875 9.92893V9.9328C10.6875 10.1697 10.5005 10.3617 10.2697 10.3617Z" fill="#F36F20"/>
<path d="M10.2697 7.98673H2.79277C2.56202 7.98673 2.375 7.79471 2.375 7.5578V7.55393C2.375 7.31702 2.56202 7.125 2.79277 7.125H10.2697C10.5005 7.125 10.6875 7.31702 10.6875 7.55393V7.5578C10.6875 7.79471 10.5005 7.98673 10.2697 7.98673Z" fill="#F36F20"/>
<path d="M6.67739 12.7367H2.82261C2.57538 12.7367 2.375 12.5447 2.375 12.3078V12.3039C2.375 12.067 2.57538 11.875 2.82261 11.875H6.67739C6.92462 11.875 7.125 12.067 7.125 12.3039V12.3078C7.125 12.5447 6.92462 12.7367 6.67739 12.7367Z" fill="#F36F20"/>
</svg>