<svg width="55" height="55" viewBox="0 0 55 55" fill="none" xmlns="http://www.w3.org/2000/svg">
<path d="M36.25 14H10.75C9.21875 14 8 15.2091 8 16.6599V29.3249C8 30.806 9.25 31.9849 10.75 31.9849H15.2188L21.4375 38V31.9849H36.25C37.7813 31.9849 39 30.7758 39 29.3249V16.6599C39 15.1788 37.7813 14 36.25 14Z" stroke="white" stroke-miterlimit="10" stroke-linejoin="round"/>
<path d="M46.2547 25H29.7756C28.7788 25 28 25.8022 28 26.7586V35.1506C28 36.1379 28.8099 36.9093 29.7756 36.9093H38.4045V42L43.5445 36.9093H46.2235C47.2203 36.9093 47.9991 36.1071 47.9991 35.1506V26.7895C48.0303 25.8022 47.2204 25 46.2547 25Z" stroke="white" stroke-miterlimit="10" stroke-linejoin="round"/>
</svg>
