<?xml version="1.0" encoding="utf-8"?>
<!-- Generator: Adobe Illustrator 23.0.1, SVG Export Plug-In . SVG Version: 6.00 Build 0)  -->
<svg version="1.1" id="Layer_1" xmlns="http://www.w3.org/2000/svg" xmlns:xlink="http://www.w3.org/1999/xlink" x="0px" y="0px"
	 viewBox="0 0 166 96" style="enable-background:new 0 0 166 96;" xml:space="preserve">
<style type="text/css">
	.st0{fill:#F36F20;}
</style>
<path class="st0" d="M135.5,15.1c0.1,0,0.2,0.1,0.3,0.1H166v-2.3h-30L94.3,0C94,0,93.8,0,93.5,0.1L71.3,9.6l-6.9-7.1
	c-2.7-2.8-7.1-2.8-9.9-0.2L2.1,52.9C0.8,54.2,0,56,0,57.8c0,1.9,0.7,3.6,2,5l29.3,30.3c1.4,1.4,3.2,2.1,5,2.1c1.8,0,3.5-0.6,4.9-2
	l50.6-48.9c1.6,0.6,4.4,2.3,7.2,4c7.8,4.7,19.6,11.9,30.5,11.9c9.8,0,34.8-10.6,35.9-11.1l-0.9-2.1c-0.3,0.1-25.7,10.9-35,10.9
	c-10.3,0-21.7-7-29.3-11.5c-3.7-2.3-6.2-3.7-7.9-4.3c-0.5-0.2-1-0.3-1.4-0.3l-1.8-0.2l-22.6-2.2l-0.1-0.1l-0.1,0.1l-9.3-0.9
	c-3.8,0-6.9-3.1-6.9-6.9c0-3.8,3.1-6.9,6.9-6.9h23.9h3.1h29.4v-2.3H83.9L73,11.4l21-9L135.5,15.1z M78.6,22.5H56.9
	c-5.1,0-9.2,4.1-9.2,9.2c0,5.1,4.1,9.2,9.1,9.2l7.2,0.7L28.6,75.8l2.6,2.7l37.5-36.4l18.1,1.7L38.5,90.5c-1.3,1.2-3.3,1.2-4.6-0.1
	L4.7,60.2c-0.6-0.6-0.9-1.4-0.9-2.3c0-0.9,0.4-1.7,1-2.3L57.2,5c1.3-1.2,3.3-1.2,4.6,0.1L78.6,22.5z"/>
</svg>
