<svg width="23" height="19" viewBox="0 0 23 19" fill="none" xmlns="http://www.w3.org/2000/svg">
<rect width="23" height="3" rx="1" fill="white"/>
<rect y="8" width="23" height="3" rx="1" fill="white"/>
<rect y="16" width="23" height="3" rx="1" fill="white"/>
</svg>
