<svg width="63" height="49" viewBox="0 0 63 49" fill="none" xmlns="http://www.w3.org/2000/svg">
<path d="M61.74 7.12268H42.7392C42.7997 6.88021 42.84 6.62763 42.84 6.36495V3.2835C42.84 1.47505 41.3683 0 39.564 0H23.436C21.6317 0 20.16 1.47505 20.16 3.2835V6.36495C20.16 6.62763 20.2003 6.88021 20.2608 7.12268H1.26C0.56448 7.12268 0 7.68846 0 8.38557V47.7371C0 48.4342 0.56448 49 1.26 49H61.74C62.4355 49 63 48.4342 63 47.7371V8.38557C63 7.68846 62.4355 7.12268 61.74 7.12268ZM22.68 3.2835C22.68 2.86928 23.0227 2.52577 23.436 2.52577H39.564C39.9773 2.52577 40.32 2.86928 40.32 3.2835V6.36495C40.32 6.77918 39.9773 7.12268 39.564 7.12268H23.436C23.0227 7.12268 22.68 6.77918 22.68 6.36495V3.2835ZM60.48 46.4742H2.52V16.6701L21.9139 28.9353C22.1155 29.0666 22.3473 29.1272 22.5893 29.1272H27.2563V32.3602C27.2563 32.7744 27.599 33.1179 28.0123 33.1179H34.9877C35.401 33.1179 35.7437 32.7744 35.7437 32.3602V29.1272H40.4107C40.6527 29.1272 40.8845 29.0565 41.0861 28.9353L60.48 16.6701V46.4742ZM60.48 13.6897L40.0478 26.6115H35.7437V23.3786C35.7437 22.9643 35.401 22.6208 34.9877 22.6208H28.0123C27.599 22.6208 27.2563 22.9643 27.2563 23.3786V26.6115H22.9522L2.52 13.6897V9.64846H23.436H39.564H60.48V13.6897Z" fill="#F36F20"/>
</svg>
