<?xml version="1.0" encoding="utf-8"?>
<!-- Generator: Adobe Illustrator 23.0.1, SVG Export Plug-In . SVG Version: 6.00 Build 0)  -->
<svg version="1.1" id="Layer_1" xmlns="http://www.w3.org/2000/svg" xmlns:xlink="http://www.w3.org/1999/xlink" x="0px" y="0px"
	 viewBox="0 0 154.4 104" style="enable-background:new 0 0 154.4 104;" xml:space="preserve">
<style type="text/css">
	.st0{fill:#F36F20;}
</style>
<path class="st0" d="M91,70.2c1.2,0,2.3-0.4,3.4-1c1.3-0.9,2.2-2.3,2.5-3.8l5.2-25.8l2.5,0.1l0,0h0.1c6.1-0.6,12.2-4.8,13.7-5.9
	h12.7v-2.4H118c-0.3,0-0.5,0.1-0.7,0.3c-0.1,0-6.5,5-12.7,5.7l-3.3-0.1h-1.1l-4.4-0.2c-10.1-0.4-16.3-0.7-17.6-0.8
	c-3.7-0.4-5.2-1.2-5.7-3.1c-0.6-2.3,0.8-4.7,3-5.3l25.6-3.2l1-0.1l0.8-0.1l-0.1-0.6l-0.1-1l-0.3-0.3c-0.1-0.1-0.3-0.3-0.5-0.4
	c-0.7-0.6-1.6-1-2.5-1.1l-39-7.5L91.3,2.5l29.4,7.3c0.1,0,0.2,0,0.3,0h10.1V7.4h-10L91.5,0c-0.2,0-0.5,0-0.7,0L55.6,12.3L29.9,7.4
	c-1.6-0.3-3.2,0-4.5,0.9s-2.2,2.2-2.5,3.8L17.7,39l-0.8,4l-1.3,6.6c-0.6,3.3,1.5,6.4,4.8,7L89.8,70C90.2,70.1,90.6,70.2,91,70.2z
	 M25.3,12.6c0.2-0.9,0.7-1.7,1.5-2.3c0.8-0.5,1.7-0.7,2.7-0.6l66.7,12.9L75,25.3c-3.6,0.9-5.8,4.6-4.9,8.3c1.1,4.2,5.6,4.7,7.8,4.9
	c1.7,0.2,10.6,0.5,17.7,0.8l4,0.1l-3,14.9L20.1,39.5L25.3,12.6z M18,50.1l1.3-6.6l76.5,14.8l-1.3,6.6c-0.2,0.9-0.7,1.7-1.5,2.3
	c-0.8,0.5-1.7,0.7-2.7,0.6L20.9,54.3C18.9,53.9,17.7,52,18,50.1z"/>
<path class="st0" d="M129.9,84.5L31,67.7c-0.6-0.1-1.2,0.1-1.7,0.5s-0.7,1-0.7,1.6v31.8c0,1.1,0.9,2,2,2h98.8c1.1,0,2-0.9,2-2V86.5
	C131.5,85.5,130.8,84.6,129.9,84.5z M127.5,99.5H32.7V72.1l94.8,16.1V99.5L127.5,99.5z"/>
</svg>
